<?xml version="1.0" encoding="UTF-8" standalone="no"?>
<!-- Created with Inkscape (http://www.inkscape.org/) -->

<svg
   xmlns:dc="http://purl.org/dc/elements/1.1/"
   xmlns:cc="http://creativecommons.org/ns#"
   xmlns:rdf="http://www.w3.org/1999/02/22-rdf-syntax-ns#"
   xmlns:svg="http://www.w3.org/2000/svg"
   xmlns="http://www.w3.org/2000/svg"
   xmlns:xlink="http://www.w3.org/1999/xlink"
   xmlns:sodipodi="http://sodipodi.sourceforge.net/DTD/sodipodi-0.dtd"
   xmlns:inkscape="http://www.inkscape.org/namespaces/inkscape"
   width="32"
   height="32"
   id="svg5692"
   version="1.1"
   inkscape:version="0.48.4 r9939"
   sodipodi:docname="GrassRasterLayerStats.svg"
   inkscape:export-filename="/home/denis/Desktop/oracle.png"
   inkscape:export-xdpi="67.5"
   inkscape:export-ydpi="67.5">
  <title
     id="title2829">GIS icon theme 0.2</title>
  <defs
     id="defs5694">
    <inkscape:perspective
       sodipodi:type="inkscape:persp3d"
       inkscape:vp_x="0 : 16 : 1"
       inkscape:vp_y="0 : 1000 : 0"
       inkscape:vp_z="32 : 16 : 1"
       inkscape:persp3d-origin="16 : 10.666667 : 1"
       id="perspective3486" />
    <inkscape:perspective
       id="perspective3496"
       inkscape:persp3d-origin="0.5 : 0.33333333 : 1"
       inkscape:vp_z="1 : 0.5 : 1"
       inkscape:vp_y="0 : 1000 : 0"
       inkscape:vp_x="0 : 0.5 : 1"
       sodipodi:type="inkscape:persp3d" />
    <inkscape:perspective
       id="perspective3600"
       inkscape:persp3d-origin="0.5 : 0.33333333 : 1"
       inkscape:vp_z="1 : 0.5 : 1"
       inkscape:vp_y="0 : 1000 : 0"
       inkscape:vp_x="0 : 0.5 : 1"
       sodipodi:type="inkscape:persp3d" />
    <inkscape:perspective
       id="perspective7871"
       inkscape:persp3d-origin="0.5 : 0.33333333 : 1"
       inkscape:vp_z="1 : 0.5 : 1"
       inkscape:vp_y="0 : 1000 : 0"
       inkscape:vp_x="0 : 0.5 : 1"
       sodipodi:type="inkscape:persp3d" />
    <inkscape:perspective
       id="perspective8710"
       inkscape:persp3d-origin="0.5 : 0.33333333 : 1"
       inkscape:vp_z="1 : 0.5 : 1"
       inkscape:vp_y="0 : 1000 : 0"
       inkscape:vp_x="0 : 0.5 : 1"
       sodipodi:type="inkscape:persp3d" />
    <inkscape:perspective
       id="perspective9811"
       inkscape:persp3d-origin="0.5 : 0.33333333 : 1"
       inkscape:vp_z="1 : 0.5 : 1"
       inkscape:vp_y="0 : 1000 : 0"
       inkscape:vp_x="0 : 0.5 : 1"
       sodipodi:type="inkscape:persp3d" />
    <inkscape:perspective
       id="perspective4762"
       inkscape:persp3d-origin="0.5 : 0.33333333 : 1"
       inkscape:vp_z="1 : 0.5 : 1"
       inkscape:vp_y="0 : 1000 : 0"
       inkscape:vp_x="0 : 0.5 : 1"
       sodipodi:type="inkscape:persp3d" />
  </defs>
  <sodipodi:namedview
     id="base"
     pagecolor="#ffffff"
     bordercolor="#666666"
     borderopacity="1.0"
     inkscape:pageopacity="0.0"
     inkscape:pageshadow="2"
     inkscape:zoom="15.9375"
     inkscape:cx="10.350887"
     inkscape:cy="15.041093"
     inkscape:current-layer="layer2"
     showgrid="true"
     inkscape:grid-bbox="true"
     inkscape:document-units="px"
     borderlayer="false"
     inkscape:window-width="1308"
     inkscape:window-height="991"
     inkscape:window-x="1789"
     inkscape:window-y="537"
     inkscape:window-maximized="0"
     inkscape:snap-global="true"
     showguides="true"
     inkscape:guide-bbox="true"
     inkscape:snap-object-midpoints="false"
     inkscape:snap-grids="true"
     inkscape:object-paths="false">
    <inkscape:grid
       type="xygrid"
       id="grid5700"
       empspacing="5"
       visible="true"
       enabled="true"
       snapvisiblegridlinesonly="true"
       dotted="true"
       originx="2.5px"
       originy="2.5px" />
  </sodipodi:namedview>
  <metadata
     id="metadata5697">
    <rdf:RDF>
      <cc:Work
         rdf:about="">
        <dc:format>image/svg+xml</dc:format>
        <dc:type
           rdf:resource="http://purl.org/dc/dcmitype/StillImage" />
        <dc:title>GIS icon theme 0.2</dc:title>
        <dc:creator>
          <cc:Agent>
            <dc:title>Robert Szczepanek</dc:title>
          </cc:Agent>
        </dc:creator>
        <dc:rights>
          <cc:Agent>
            <dc:title>Robert Szczepanek</dc:title>
          </cc:Agent>
        </dc:rights>
        <dc:subject>
          <rdf:Bag>
            <rdf:li>GIS icons</rdf:li>
          </rdf:Bag>
        </dc:subject>
        <dc:coverage>GIS icons</dc:coverage>
        <dc:description>http://robert.szczepanek.pl/</dc:description>
        <cc:license
           rdf:resource="http://creativecommons.org/licenses/by-sa/3.0/" />
      </cc:Work>
      <cc:License
         rdf:about="http://creativecommons.org/licenses/by-sa/3.0/">
        <cc:permits
           rdf:resource="http://creativecommons.org/ns#Reproduction" />
        <cc:permits
           rdf:resource="http://creativecommons.org/ns#Distribution" />
        <cc:requires
           rdf:resource="http://creativecommons.org/ns#Notice" />
        <cc:requires
           rdf:resource="http://creativecommons.org/ns#Attribution" />
        <cc:permits
           rdf:resource="http://creativecommons.org/ns#DerivativeWorks" />
        <cc:requires
           rdf:resource="http://creativecommons.org/ns#ShareAlike" />
      </cc:License>
    </rdf:RDF>
  </metadata>
  <g
     inkscape:groupmode="layer"
     id="layer2"
     inkscape:label="Layer"
     style="display:inline">
    <g
       id="g3081"
       transform="matrix(1.4478122,0,0,1.3316739,-1.4807607,-10.69948)">
      <rect
         y="8.0443678"
         x="8.4364643"
         height="8.0084934"
         width="7.371645"
         id="rect6419"
         style="fill:#6e97c4;fill-opacity:1;fill-rule:nonzero;stroke:none" />
      <rect
         y="8.0443678"
         x="15.808113"
         height="8.0084934"
         width="7.371645"
         id="rect6419-6"
         style="fill:#253e5b;fill-opacity:1;fill-rule:nonzero;stroke:none;display:inline" />
      <rect
         inkscape:transform-center-y="-5.3389945"
         inkscape:transform-center-x="-3.6858218"
         y="16.052862"
         x="8.4364643"
         height="8.0084934"
         width="7.371645"
         id="rect6419-6-9"
         style="fill:#253e5b;fill-opacity:1;fill-rule:nonzero;stroke:none;display:inline" />
      <rect
         y="16.052862"
         x="15.808113"
         height="8.0084934"
         width="7.371645"
         id="rect6419-0"
         style="fill:#6d97c4;fill-opacity:1;fill-rule:nonzero;stroke:none;display:inline" />
      <rect
         y="8.0443678"
         x="1.0648196"
         height="8.0084934"
         width="7.371645"
         id="rect6419-6-7"
         style="fill:#253e5b;fill-opacity:1;fill-rule:nonzero;stroke:none;display:inline" />
      <rect
         y="16.052862"
         x="1.0648196"
         height="8.0084934"
         width="7.371645"
         id="rect6419-3"
         style="fill:#6d97c4;fill-opacity:1;fill-rule:nonzero;stroke:none;display:inline" />
      <rect
         y="24.061359"
         x="8.4364643"
         height="8.0084934"
         width="7.371645"
         id="rect6419-5"
         style="fill:#6d97c4;fill-opacity:1;fill-rule:nonzero;stroke:none;display:inline" />
      <rect
         y="24.061359"
         x="1.0648196"
         height="8.0084934"
         width="7.371645"
         id="rect6419-6-6"
         style="fill:#253e5b;fill-opacity:1;fill-rule:nonzero;stroke:none;display:inline" />
      <rect
         y="8.0443678"
         x="1.0648196"
         height="24.02548"
         width="22.114937"
         id="rect6554"
         style="fill:none;stroke:none" />
      <rect
         y="24.060953"
         x="15.831308"
         height="8.0084934"
         width="7.371645"
         id="rect6419-6-0"
         style="fill:#253e5b;fill-opacity:1;fill-rule:nonzero;stroke:none;display:inline" />
    </g>
    <image
       y="8.5"
       x="4.0932198"
       id="image3070"
       xlink:href="data:image/png;base64,iVBORw0KGgoAAAANSUhEUgAAAEAAAABACAYAAACqaXHeAAAABHNCSVQICAgIfAhkiAAABf5JREFU eJztmntQVHUUx7+/391dHi4Lmwgo0FRIZoypBcX4GMPWMQMLBxcpQvMxYhrqZGNmM1iTjWLOaOmQ aaCwjsRDGZmlBDNn0hnjEUpQlpYzTdqkMAgsrMu+bn/ALtx9wO7CchfZzwxc9nLO/Z3f9/c45967 hGVZjGco3wHwjVcAvgPgG68AfAfAN14B+A6Ab8a9AIKBH6Kjo32koZN3+Yh8FhoMhkgWLEspadao NeUNtVeOsSxr5CtQd8ERYFJ4pGL6U9OSkpMS/UImBUOr1eLPv26FK787N1coErwAYA1PcboNMrAU jp0zT12sKPCTBIih1+vNPx2dnVidudFwteaKYJBrjUk4HdLpdH5SaRAMej3HaIK/P4xGIxM3b76K 607Mv8CyvUewpgOxNDRJzYLzv76TRmLpN+AuxcKe7bcxNcey1tc0tds/yGabxroaAlgIMBSFx46K KaVgKAFlGFDCgBFQEErBUKa3hQFhENOHviPpa99VG7PtMG3mvPiS+ZylAKwdJQEAgRIJKEPBUApK KShlQBnT32MzoQwr6u7u7pGKgzc4AhBid/Ct0Op0WJb2xogHNNqMzXk7ApC+0bYUgB1vT4jG7Qww YSWAdwaMAwghLPoKBcssMOQe4GieKKpqwpIsBYqqmlwKcrRw2ww4UlaHf+52ILe0Fgaj5y4r7gxw ytW+9alzv8DIsogMlWBioB/WfFyOlvueWTQ5d3fngEJFVU1QVF5D6d5UhAUHgGWBo2fqkbqjBHve kSF+RqSLoboH7hJwYA8YjG+qm1CovIr8XcsQFhzQd0kgMyUWOZsXYefh75FbWgujB2QauVxusxBy meLqZpyouIq87GRM7uv8QJ6PiUBJzgrU/XoH63dXoK3jwUg1PSxGpA4ou/Ab8it+Rl72MkyZJLFr Fxzkj6+zkzEzOhSJWxRYtLHA5SxRVNWEpC0nh51lhj0Dyi9ex7Hy3s6Hh1iPvCUMJchKi8cEPx/c bevCkbI6uLIiviytxd//tSP/bIMLUfdjYwY45nj64h9oC5ThwKmfkJf9GiJC7I+8LTJTYhEZIoG/ rxCbcpTo6OpxyK+9S4NNOUpM8BMibGIAHvTosOf4Jej0BmeaZ1taWmzfDDl6hbIfrsNIhJBK/Jzu PADIZTGo/CIDyoPpeCJcCvn7xWi8cXdQn4bf/4V8ezGiIh6B8uCbOJ+7CpWfZ+D2vQ5kZJ/BnXuq Qf1tYWMJOKbBCtl0MIZurEx8xulGB8IwFO9lzMWOt+Yj6zMlCiuvWdkYWRZfna7HtgNV+CgzAe+m zwHD9IYeKPbB4e1JWBw/FWk7S3Ch9pZT7btcCCUvmAap6kekLHzaqQbtsTDucZz6VI7Kyzewdf+3 6FJrAQCt7Wqs312BmubbKNmbirkzH7XyJQRY/epsHNqeiD0nLiHnxGXo9Y69wrAqhAbLAs5Vis4T ESLByU9SsK/gMl7OUkDAUGi0OqxKmo3MlFjQIZ5YzXoyDGX7VuCDQ+eRuFUBCoqVS2fh9cUzOHYE gEqlsrEHuLuHDiAUMPhw7QL4CBnc73yAQLEv3l4eN2TnTQSJfZG7YynUGj3u3e9GcXXzoPYe+zxg w/I4PDYlCOuSn3PalxBgc1o8IkIlSF8y+B7FXQLEcx4PyGUxkMti3O5v2WPiGePvXgil5m56zpCP MhqNxmYhRFyqS8cwlnWAB+SB0cVuFuhUqdDS2mrH7eHRiZMFCEDyCxRouNaI1tZWCEVCGPQGxMU+ a9NZq9VC9srSUQnUVaqVZyESiazO9/T0WL8eZwHS2NSEzNWrMDUqCgKhAB2dKhxXnIRQwM2YIqEQ 1ZUVIISCUuKxb4dtdX4gnF5RQvTpqamCqVFR5g5Jg4KwbXMWNqxby/UkvSJQ+hC9HjcY2V15BYXq mvp66HT93xIhhCAwYOiHHWMRzneEEhISBG0qdbpYLN7Y1d0Vh4dpt7NA3d7me/PmzR7iKbU/X4zN hTuCeAXgOwC+8QrAdwB84xWA7wD4xisA3wHwjVcAvgPgG68AfAfAN14B+A6Ab/4Hf9jgFc5CjX4A AAAASUVORK5CYII= "
       height="29.016951"
       width="28.40678" />
  </g>
</svg>
